^E:\MATERI KULIAH\ALGORITMA DAN PEMROGRAMAN\C++\PBO\COLLAPSE\COLLAPSE\RELEASE\COLLAPSE.OBJ
E:\MATERI KULIAH\ALGORITMA DAN PEMROGRAMAN\C++\PBO\COLLAPSE\RELEASE\COLLAPSE.EXE
E:\MATERI KULIAH\ALGORITMA DAN PEMROGRAMAN\C++\PBO\COLLAPSE\COLLAPSE\RELEASE\COLLAPSE.EXE.INTERMEDIATE.MANIFEST
E:\MATERI KULIAH\ALGORITMA DAN PEMROGRAMAN\C++\PBO\COLLAPSE\RELEASE\COLLAPSE.PDB
^D:\GITLAB\COLLAPSE\COLLAPSE\RELEASE\COLLAPSE.OBJ
D:\GITLAB\COLLAPSE\RELEASE\COLLAPSE.EXE
D:\GITLAB\COLLAPSE\COLLAPSE\RELEASE\COLLAPSE.EXE.INTERMEDIATE.MANIFEST
D:\GITLAB\COLLAPSE\RELEASE\COLLAPSE.PDB
^D:\GITLAB\COLLAPSE GAME SFML\COLLAPSE\RELEASE\COLLAPSE.OBJ
D:\GITLAB\COLLAPSE GAME SFML\RELEASE\COLLAPSE.EXE
D:\GITLAB\COLLAPSE GAME SFML\COLLAPSE\RELEASE\COLLAPSE.EXE.INTERMEDIATE.MANIFEST
D:\GITLAB\COLLAPSE GAME SFML\RELEASE\COLLAPSE.PDB
