^E:\MATERI KULIAH\ALGORITMA DAN PEMROGRAMAN\C++\PBO\COLLAPSE\COLLAPSE\RELEASE\COLLAPSE.EXE.INTERMEDIATE.MANIFEST
/nologo /verbose /outputresource:"E:\Materi Kuliah\Algoritma dan Pemrograman\C++\PBO\Collapse\Release\Collapse.exe;#1" /manifest Release\Collapse.exe.intermediate.manifest
^D:\GITLAB\COLLAPSE\COLLAPSE\RELEASE\COLLAPSE.EXE.INTERMEDIATE.MANIFEST
/nologo /verbose /outputresource:"D:\GitLab\Collapse\Release\Collapse.exe;#1" /manifest Release\Collapse.exe.intermediate.manifest
^D:\GITLAB\COLLAPSE GAME SFML\COLLAPSE\RELEASE\COLLAPSE.EXE.INTERMEDIATE.MANIFEST
/nologo /verbose /outputresource:"D:\GitLab\Collapse Game SFML\Release\Collapse.exe;#1" /manifest Release\Collapse.exe.intermediate.manifest
