^E:\MATERI KULIAH\ALGORITMA DAN PEMROGRAMAN\C++\PBO\COLLAPSE\COLLAPSE\DEBUG\COLLAPSE.EXE.EMBED.MANIFEST.RES|E:\MATERI KULIAH\ALGORITMA DAN PEMROGRAMAN\C++\PBO\COLLAPSE\COLLAPSE\DEBUG\COLLAPSE.OBJ
E:\MATERI KULIAH\ALGORITMA DAN PEMROGRAMAN\C++\PBO\COLLAPSE\DEBUG\COLLAPSE.ILK
E:\MATERI KULIAH\ALGORITMA DAN PEMROGRAMAN\C++\PBO\COLLAPSE\DEBUG\COLLAPSE.EXE
E:\MATERI KULIAH\ALGORITMA DAN PEMROGRAMAN\C++\PBO\COLLAPSE\COLLAPSE\DEBUG\COLLAPSE.EXE.INTERMEDIATE.MANIFEST
E:\MATERI KULIAH\ALGORITMA DAN PEMROGRAMAN\C++\PBO\COLLAPSE\DEBUG\COLLAPSE.PDB
